referências/tp3/hal_2/simulation/modelsim/msim_transcript
# do hal_2_run_msim_rtl_verilog.do
# if {[file exists rtl_work]} {
# 	vdel -lib rtl_work -all
# }
# vlib rtl_work
# vmap work rtl_work
# Model Technology ModelSim - Intel FPGA Edition vmap 10.5b Lib Mapping Utility 2016.10 Oct  5 2016
# vmap work rtl_work 
# Copying /home/james/Programas/intelFPGA_lite/17.0/modelsim_ase/linuxaloem/../modelsim.ini to modelsim.ini
# Modifying modelsim.ini
# 
# vlog -vlog01compat -work work +incdir+/home/james/Documents/UFMG/oc2/tp3/hal_2 {/home/james/Documents/UFMG/oc2/tp3/hal_2/mux.v}
# Model Technology ModelSim - Intel FPGA Edition vlog 10.5b Compiler 2016.10 Oct  5 2016
# Start time: 18:26:07 on Nov 06,2017
# vlog -reportprogress 300 -vlog01compat -work work "+incdir+/home/james/Documents/UFMG/oc2/tp3/hal_2" /home/james/Documents/UFMG/oc2/tp3/hal_2/mux.v 
# -- Compiling module mux_2
# -- Compiling module mux_3
# 
# Top level modules:
# 	mux_2
# 	mux_3
# End time: 18:26:07 on Nov 06,2017, Elapsed time: 0:00:00
# Errors: 0, Warnings: 0
# vlog -vlog01compat -work work +incdir+/home/james/Documents/UFMG/oc2/tp3/hal_2 {/home/james/Documents/UFMG/oc2/tp3/hal_2/hal_2.v}
# Model Technology ModelSim - Intel FPGA Edition vlog 10.5b Compiler 2016.10 Oct  5 2016
# Start time: 18:26:07 on Nov 06,2017
# vlog -reportprogress 300 -vlog01compat -work work "+incdir+/home/james/Documents/UFMG/oc2/tp3/hal_2" /home/james/Documents/UFMG/oc2/tp3/hal_2/hal_2.v 
# -- Compiling module hal_2
# 
# Top level modules:
# 	hal_2
# End time: 18:26:07 on Nov 06,2017, Elapsed time: 0:00:00
# Errors: 0, Warnings: 0
# vlog -vlog01compat -work work +incdir+/home/james/Documents/UFMG/oc2/tp3/hal_2 {/home/james/Documents/UFMG/oc2/tp3/hal_2/control_unit.v}
# Model Technology ModelSim - Intel FPGA Edition vlog 10.5b Compiler 2016.10 Oct  5 2016
# Start time: 18:26:07 on Nov 06,2017
# vlog -reportprogress 300 -vlog01compat -work work "+incdir+/home/james/Documents/UFMG/oc2/tp3/hal_2" /home/james/Documents/UFMG/oc2/tp3/hal_2/control_unit.v 
# -- Compiling module control_unit
# 
# Top level modules:
# 	control_unit
# End time: 18:26:07 on Nov 06,2017, Elapsed time: 0:00:00
# Errors: 0, Warnings: 0
# vlog -vlog01compat -work work +incdir+/home/james/Documents/UFMG/oc2/tp3/hal_2 {/home/james/Documents/UFMG/oc2/tp3/hal_2/register_bank.v}
# Model Technology ModelSim - Intel FPGA Edition vlog 10.5b Compiler 2016.10 Oct  5 2016
# Start time: 18:26:07 on Nov 06,2017
# vlog -reportprogress 300 -vlog01compat -work work "+incdir+/home/james/Documents/UFMG/oc2/tp3/hal_2" /home/james/Documents/UFMG/oc2/tp3/hal_2/register_bank.v 
# -- Compiling module register_bank
# 
# Top level modules:
# 	register_bank
# End time: 18:26:07 on Nov 06,2017, Elapsed time: 0:00:00
# Errors: 0, Warnings: 0
# vlog -vlog01compat -work work +incdir+/home/james/Documents/UFMG/oc2/tp3/hal_2 {/home/james/Documents/UFMG/oc2/tp3/hal_2/alu.v}
# Model Technology ModelSim - Intel FPGA Edition vlog 10.5b Compiler 2016.10 Oct  5 2016
# Start time: 18:26:07 on Nov 06,2017
# vlog -reportprogress 300 -vlog01compat -work work "+incdir+/home/james/Documents/UFMG/oc2/tp3/hal_2" /home/james/Documents/UFMG/oc2/tp3/hal_2/alu.v 
# -- Compiling module alu
# 
# Top level modules:
# 	alu
# End time: 18:26:07 on Nov 06,2017, Elapsed time: 0:00:00
# Errors: 0, Warnings: 0
# vlog -vlog01compat -work work +incdir+/home/james/Documents/UFMG/oc2/tp3/hal_2 {/home/james/Documents/UFMG/oc2/tp3/hal_2/i_mem.v}
# Model Technology ModelSim - Intel FPGA Edition vlog 10.5b Compiler 2016.10 Oct  5 2016
# Start time: 18:26:07 on Nov 06,2017
# vlog -reportprogress 300 -vlog01compat -work work "+incdir+/home/james/Documents/UFMG/oc2/tp3/hal_2" /home/james/Documents/UFMG/oc2/tp3/hal_2/i_mem.v 
# -- Compiling module i_mem
# 
# Top level modules:
# 	i_mem
# End time: 18:26:07 on Nov 06,2017, Elapsed time: 0:00:00
# Errors: 0, Warnings: 0
# 
# 
# stdin: <EOF>
do simu_def.do
# vsim -Lf altera_mf_ver hal_2 
# Start time: 18:26:12 on Nov 06,2017
# Loading work.hal_2
# Loading work.mux_2
# Loading work.mux_3
# Loading work.control_unit
# Loading work.i_mem
# Loading altera_mf_ver.altsyncram
# Loading work.register_bank
# Loading work.alu
# Loading altera_mf_ver.altsyncram_body
# Loading altera_mf_ver.ALTERA_DEVICE_FAMILIES
# Loading altera_mf_ver.ALTERA_MF_MEMORY_INITIALIZATION
run
# reg_0 reg_1 reg_2 reg_3 reg_4 reg_5 reg_6 reg_7 reg_8 reg_9 reg_10 reg_11 reg_12 reg_13 reg_14 reg_15 time
#     0     0     0     0     0     0     0     0     0     0     0     0     0     0     0     0                    0
run
# reg_0 reg_1 reg_2 reg_3 reg_4 reg_5 reg_6 reg_7 reg_8 reg_9 reg_10 reg_11 reg_12 reg_13 reg_14 reg_15 time
run
#     0     0    15     0     0     0     0     0     0     0     0     0     0     0     0     0                  200
run
# reg_0 reg_1 reg_2 reg_3 reg_4 reg_5 reg_6 reg_7 reg_8 reg_9 reg_10 reg_11 reg_12 reg_13 reg_14 reg_15 time
#     0     0    27     0     0     0     0     0     0     0     0     0     0     0     0     0                  500
run
# reg_0 reg_1 reg_2 reg_3 reg_4 reg_5 reg_6 reg_7 reg_8 reg_9 reg_10 reg_11 reg_12 reg_13 reg_14 reg_15 time
#     0     0    27    31     0     0     0     0     0     0     0     0     0     0     0     0                  800
run
# reg_0 reg_1 reg_2 reg_3 reg_4 reg_5 reg_6 reg_7 reg_8 reg_9 reg_10 reg_11 reg_12 reg_13 reg_14 reg_15 time
#     0     0    27    31    35     0     0     0     0     0     0     0     0     0     0     0                 1100
run
# reg_0 reg_1 reg_2 reg_3 reg_4 reg_5 reg_6 reg_7 reg_8 reg_9 reg_10 reg_11 reg_12 reg_13 reg_14 reg_15 time
#     0     0    27    31    35    39     0     0     0     0     0     0     0     0     0     0                 1400
run
# reg_0 reg_1 reg_2 reg_3 reg_4 reg_5 reg_6 reg_7 reg_8 reg_9 reg_10 reg_11 reg_12 reg_13 reg_14 reg_15 time
#     0     0    27    31    35    39    43     0     0     0     0     0     0     0     0     0                 1700
run
# reg_0 reg_1 reg_2 reg_3 reg_4 reg_5 reg_6 reg_7 reg_8 reg_9 reg_10 reg_11 reg_12 reg_13 reg_14 reg_15 time
#     0     0    27    31    35    39    43     0     0     0     0    12     0     0     0     0                 2000
run
# reg_0 reg_1 reg_2 reg_3 reg_4 reg_5 reg_6 reg_7 reg_8 reg_9 reg_10 reg_11 reg_12 reg_13 reg_14 reg_15 time
#     0     0    27    31    35    39    43     0     0     0     0    12     8     0     0     0                 2300
run
# reg_0 reg_1 reg_2 reg_3 reg_4 reg_5 reg_6 reg_7 reg_8 reg_9 reg_10 reg_11 reg_12 reg_13 reg_14 reg_15 time
#     0     0    27    31    35    39    43     0     0     0     0    12     8    13     0     0                 2600
run
# reg_0 reg_1 reg_2 reg_3 reg_4 reg_5 reg_6 reg_7 reg_8 reg_9 reg_10 reg_11 reg_12 reg_13 reg_14 reg_15 time
#     0     0    27    31    35    39    43     0     0     0     0    12     8    13     8     0                 2900
run
# reg_0 reg_1 reg_2 reg_3 reg_4 reg_5 reg_6 reg_7 reg_8 reg_9 reg_10 reg_11 reg_12 reg_13 reg_14 reg_15 time
#     0     0    27    31    35    39    43     0     0     0     0    12     8    13     8    14                 3200
run
# reg_0 reg_1 reg_2 reg_3 reg_4 reg_5 reg_6 reg_7 reg_8 reg_9 reg_10 reg_11 reg_12 reg_13 reg_14 reg_15 time
#     0     0    27    31    35    39    43     4     0     0     0    12     8    13     8    14                 3500
run
# reg_0 reg_1 reg_2 reg_3 reg_4 reg_5 reg_6 reg_7 reg_8 reg_9 reg_10 reg_11 reg_12 reg_13 reg_14 reg_15 time
#     0     0    27    31    35    39    43     3     0     0     0    12     8    13     8    14                 3800
run
# reg_0 reg_1 reg_2 reg_3 reg_4 reg_5 reg_6 reg_7 reg_8 reg_9 reg_10 reg_11 reg_12 reg_13 reg_14 reg_15 time
#     0     0    27    31    35    39    43     3     4     0     0    12     8    13     8    14                 4100
run
# reg_0 reg_1 reg_2 reg_3 reg_4 reg_5 reg_6 reg_7 reg_8 reg_9 reg_10 reg_11 reg_12 reg_13 reg_14 reg_15 time
#     0     0    27    31    35    39    43     3     4     1     0    12     8    13     8    14                 4400
run
# reg_0 reg_1 reg_2 reg_3 reg_4 reg_5 reg_6 reg_7 reg_8 reg_9 reg_10 reg_11 reg_12 reg_13 reg_14 reg_15 time
#     0     0    27    31    35    39    43     3     4     1     0    12     8    13     8    14                 4700
run
# reg_0 reg_1 reg_2 reg_3 reg_4 reg_5 reg_6 reg_7 reg_8 reg_9 reg_10 reg_11 reg_12 reg_13 reg_14 reg_15 time
#     0     0    27    31    35    39    43     3 65531     1     0    12     8    13     8    14                 5000
run
# reg_0 reg_1 reg_2 reg_3 reg_4 reg_5 reg_6 reg_7 reg_8 reg_9 reg_10 reg_11 reg_12 reg_13 reg_14 reg_15 time
#     0     0    27    31    35    39    43     3 65531     0     0    12     8    13     8    14                 5300
run
# reg_0 reg_1 reg_2 reg_3 reg_4 reg_5 reg_6 reg_7 reg_8 reg_9 reg_10 reg_11 reg_12 reg_13 reg_14 reg_15 time
#     0     0    27    31    35    39    43     3 65531     0     0    12     8    13     8    14                 5600
run
# reg_0 reg_1 reg_2 reg_3 reg_4 reg_5 reg_6 reg_7 reg_8 reg_9 reg_10 reg_11 reg_12 reg_13 reg_14 reg_15 time
#     0     0    27    31    35    39    43     3 65531     0    13    12     8    13     8    14                 5900
run
# reg_0 reg_1 reg_2 reg_3 reg_4 reg_5 reg_6 reg_7 reg_8 reg_9 reg_10 reg_11 reg_12 reg_13 reg_14 reg_15 time
#     0     0    27    31    35    39    43     3 65531     0    13    12     8     8     8    14                 6200
run
# reg_0 reg_1 reg_2 reg_3 reg_4 reg_5 reg_6 reg_7 reg_8 reg_9 reg_10 reg_11 reg_12 reg_13 reg_14 reg_15 time
#     0     0    27    31    35    39    43     3 65531     0    13    12    13     8     8    14                 6500
run
# reg_0 reg_1 reg_2 reg_3 reg_4 reg_5 reg_6 reg_7 reg_8 reg_9 reg_10 reg_11 reg_12 reg_13 reg_14 reg_15 time
#     0     0    27    31    35    39    43     3 65531     0    13    12    13     8     8    14                 6800
run
# reg_0 reg_1 reg_2 reg_3 reg_4 reg_5 reg_6 reg_7 reg_8 reg_9 reg_10 reg_11 reg_12 reg_13 reg_14 reg_15 time
#     0     0    27    31    35    39    43     3     0     0    13    12    13     8     8    14                 7100
run
# reg_0 reg_1 reg_2 reg_3 reg_4 reg_5 reg_6 reg_7 reg_8 reg_9 reg_10 reg_11 reg_12 reg_13 reg_14 reg_15 time
#     0     0    27    31    35    39    43     3     0     0    13    12    13     8     8    14                 7400
run
# reg_0 reg_1 reg_2 reg_3 reg_4 reg_5 reg_6 reg_7 reg_8 reg_9 reg_10 reg_11 reg_12 reg_13 reg_14 reg_15 time
#     0     0    27    31    35    39    43     3     0     0    13    12    13     8     8    14                 7700
run
# reg_0 reg_1 reg_2 reg_3 reg_4 reg_5 reg_6 reg_7 reg_8 reg_9 reg_10 reg_11 reg_12 reg_13 reg_14 reg_15 time
#     0     0    27    31    35    39    43     3     0     0     8    12    13     8     8    14                 8000
run
# reg_0 reg_1 reg_2 reg_3 reg_4 reg_5 reg_6 reg_7 reg_8 reg_9 reg_10 reg_11 reg_12 reg_13 reg_14 reg_15 time
#     0     0    27    31    35    39    43     3     0     0     8    12    13     8     8    14                 8300
run
# reg_0 reg_1 reg_2 reg_3 reg_4 reg_5 reg_6 reg_7 reg_8 reg_9 reg_10 reg_11 reg_12 reg_13 reg_14 reg_15 time
#     0     0    27    31    35    39    43     3     0     0     8    12    13     8     8    14                 8600
run
# reg_0 reg_1 reg_2 reg_3 reg_4 reg_5 reg_6 reg_7 reg_8 reg_9 reg_10 reg_11 reg_12 reg_13 reg_14 reg_15 time
#     0     0    27    31    35    39    43     3     0     0     8    12    13     8     8    14                 8900
run
# reg_0 reg_1 reg_2 reg_3 reg_4 reg_5 reg_6 reg_7 reg_8 reg_9 reg_10 reg_11 reg_12 reg_13 reg_14 reg_15 time
#     0     0    27    31    35    39    43     3 65530     0     8    12    13     8     8    14                 9200
run
# reg_0 reg_1 reg_2 reg_3 reg_4 reg_5 reg_6 reg_7 reg_8 reg_9 reg_10 reg_11 reg_12 reg_13 reg_14 reg_15 time
#     0     0    27    31    35    39    43     3 65530     0     8    12    13     8     8    14                 9500
run
# reg_0 reg_1 reg_2 reg_3 reg_4 reg_5 reg_6 reg_7 reg_8 reg_9 reg_10 reg_11 reg_12 reg_13 reg_14 reg_15 time
#     0     0    27    31    35    39    43     3 65530     0     8    12    13     8     8    14                 9800
run
# reg_0 reg_1 reg_2 reg_3 reg_4 reg_5 reg_6 reg_7 reg_8 reg_9 reg_10 reg_11 reg_12 reg_13 reg_14 reg_15 time
#     0     0    27    31    35    39    43     3 65530     0    14    12    13     8     8    14                10100
run
# reg_0 reg_1 reg_2 reg_3 reg_4 reg_5 reg_6 reg_7 reg_8 reg_9 reg_10 reg_11 reg_12 reg_13 reg_14 reg_15 time
#     0     0    27    31    35    39    43     3 65530     0    14    12    13     8     8     8                10400
run
# reg_0 reg_1 reg_2 reg_3 reg_4 reg_5 reg_6 reg_7 reg_8 reg_9 reg_10 reg_11 reg_12 reg_13 reg_14 reg_15 time
#     0     0    27    31    35    39    43     3 65530     0    14    12    13     8    14     8                10700
run
# reg_0 reg_1 reg_2 reg_3 reg_4 reg_5 reg_6 reg_7 reg_8 reg_9 reg_10 reg_11 reg_12 reg_13 reg_14 reg_15 time
#     0     0    27    31    35    39    43     3 65530     0    14    12    13     8    14     8                11000
run
# reg_0 reg_1 reg_2 reg_3 reg_4 reg_5 reg_6 reg_7 reg_8 reg_9 reg_10 reg_11 reg_12 reg_13 reg_14 reg_15 time
#     0     0    27    31    35    39    43     3 65530     0    14    12    13     8    14     8                11300
run
# reg_0 reg_1 reg_2 reg_3 reg_4 reg_5 reg_6 reg_7 reg_8 reg_9 reg_10 reg_11 reg_12 reg_13 reg_14 reg_15 time
#     0     0    27    31    35    39    43     3 65530     0    14    12    13     8    14     8                11600
run
# reg_0 reg_1 reg_2 reg_3 reg_4 reg_5 reg_6 reg_7 reg_8 reg_9 reg_10 reg_11 reg_12 reg_13 reg_14 reg_15 time
#     0     0    27    31    35    39    43     2 65530     0    14    12    13     8    14     8                11900
run
# reg_0 reg_1 reg_2 reg_3 reg_4 reg_5 reg_6 reg_7 reg_8 reg_9 reg_10 reg_11 reg_12 reg_13 reg_14 reg_15 time
#     0     0    27    31    35    39    43     2 65535     0    14    12    13     8    14     8                12200
run
# reg_0 reg_1 reg_2 reg_3 reg_4 reg_5 reg_6 reg_7 reg_8 reg_9 reg_10 reg_11 reg_12 reg_13 reg_14 reg_15 time
#     0     0    27    31    35    39    43     2 65535     0    14    12    13     8    14     8                12500
run
# reg_0 reg_1 reg_2 reg_3 reg_4 reg_5 reg_6 reg_7 reg_8 reg_9 reg_10 reg_11 reg_12 reg_13 reg_14 reg_15 time
#     0     0    27    31    35    39    43     2 65535     0    14    12    13     8    14     8                12800
run
# reg_0 reg_1 reg_2 reg_3 reg_4 reg_5 reg_6 reg_7 reg_8 reg_9 reg_10 reg_11 reg_12 reg_13 reg_14 reg_15 time
#     0     0    27    31    35    39    43     2 65535     0    13    12    13     8    14     8                13100
run
# reg_0 reg_1 reg_2 reg_3 reg_4 reg_5 reg_6 reg_7 reg_8 reg_9 reg_10 reg_11 reg_12 reg_13 reg_14 reg_15 time
#     0     0    27    31    35    39    43     2 65535     0    13    12    12     8    14     8                13400
run
# reg_0 reg_1 reg_2 reg_3 reg_4 reg_5 reg_6 reg_7 reg_8 reg_9 reg_10 reg_11 reg_12 reg_13 reg_14 reg_15 time
#     0     0    27    31    35    39    43     2 65535     0    13    13    12     8    14     8                13700
run
# reg_0 reg_1 reg_2 reg_3 reg_4 reg_5 reg_6 reg_7 reg_8 reg_9 reg_10 reg_11 reg_12 reg_13 reg_14 reg_15 time
#     0     0    27    31    35    39    43     2 65535     0    13    13    12     8    14     8                14000
run
# reg_0 reg_1 reg_2 reg_3 reg_4 reg_5 reg_6 reg_7 reg_8 reg_9 reg_10 reg_11 reg_12 reg_13 reg_14 reg_15 time
#     0     0    27    31    35    39    43     2     4     0    13    13    12     8    14     8                14300
run
# reg_0 reg_1 reg_2 reg_3 reg_4 reg_5 reg_6 reg_7 reg_8 reg_9 reg_10 reg_11 reg_12 reg_13 reg_14 reg_15 time
#     0     0    27    31    35    39    43     2     4     1    13    13    12     8    14     8                14600
run
# reg_0 reg_1 reg_2 reg_3 reg_4 reg_5 reg_6 reg_7 reg_8 reg_9 reg_10 reg_11 reg_12 reg_13 reg_14 reg_15 time
#     0     0    27    31    35    39    43     2     4     1    13    13    12     8    14     8                14900
run
# reg_0 reg_1 reg_2 reg_3 reg_4 reg_5 reg_6 reg_7 reg_8 reg_9 reg_10 reg_11 reg_12 reg_13 reg_14 reg_15 time
#     0     0    27    31    35    39    43     2 65530     1    13    13    12     8    14     8                15200
run
# reg_0 reg_1 reg_2 reg_3 reg_4 reg_5 reg_6 reg_7 reg_8 reg_9 reg_10 reg_11 reg_12 reg_13 reg_14 reg_15 time
#     0     0    27    31    35    39    43     2 65530     0    13    13    12     8    14     8                15500
run
# reg_0 reg_1 reg_2 reg_3 reg_4 reg_5 reg_6 reg_7 reg_8 reg_9 reg_10 reg_11 reg_12 reg_13 reg_14 reg_15 time
#     0     0    27    31    35    39    43     2 65530     0    13    13    12     8    14     8                15800
run
# reg_0 reg_1 reg_2 reg_3 reg_4 reg_5 reg_6 reg_7 reg_8 reg_9 reg_10 reg_11 reg_12 reg_13 reg_14 reg_15 time
#     0     0    27    31    35    39    43     2 65530     0    14    13    12     8    14     8                16100
run
# reg_0 reg_1 reg_2 reg_3 reg_4 reg_5 reg_6 reg_7 reg_8 reg_9 reg_10 reg_11 reg_12 reg_13 reg_14 reg_15 time
#     0     0    27    31    35    39    43     2 65530     0    14    13    12     8     8     8                16400
run
# reg_0 reg_1 reg_2 reg_3 reg_4 reg_5 reg_6 reg_7 reg_8 reg_9 reg_10 reg_11 reg_12 reg_13 reg_14 reg_15 time
#     0     0    27    31    35    39    43     2 65530     0    14    13    12    14     8     8                16700
run
# reg_0 reg_1 reg_2 reg_3 reg_4 reg_5 reg_6 reg_7 reg_8 reg_9 reg_10 reg_11 reg_12 reg_13 reg_14 reg_15 time
#     0     0    27    31    35    39    43     2 65530     0    14    13    12    14     8     8                17000
run
# reg_0 reg_1 reg_2 reg_3 reg_4 reg_5 reg_6 reg_7 reg_8 reg_9 reg_10 reg_11 reg_12 reg_13 reg_14 reg_15 time
#     0     0    27    31    35    39    43     2     0     0    14    13    12    14     8     8                17300
run
# reg_0 reg_1 reg_2 reg_3 reg_4 reg_5 reg_6 reg_7 reg_8 reg_9 reg_10 reg_11 reg_12 reg_13 reg_14 reg_15 time
#     0     0    27    31    35    39    43     2     0     0    14    13    12    14     8     8                17600
run
# reg_0 reg_1 reg_2 reg_3 reg_4 reg_5 reg_6 reg_7 reg_8 reg_9 reg_10 reg_11 reg_12 reg_13 reg_14 reg_15 time
#     0     0    27    31    35    39    43     2     0     0    14    13    12    14     8     8                17900
run
# reg_0 reg_1 reg_2 reg_3 reg_4 reg_5 reg_6 reg_7 reg_8 reg_9 reg_10 reg_11 reg_12 reg_13 reg_14 reg_15 time
#     0     0    27    31    35    39    43     2     0     0     8    13    12    14     8     8                18200
run
# reg_0 reg_1 reg_2 reg_3 reg_4 reg_5 reg_6 reg_7 reg_8 reg_9 reg_10 reg_11 reg_12 reg_13 reg_14 reg_15 time
#     0     0    27    31    35    39    43     2     0     0     8    13    12    14     8     8                18500
run
# reg_0 reg_1 reg_2 reg_3 reg_4 reg_5 reg_6 reg_7 reg_8 reg_9 reg_10 reg_11 reg_12 reg_13 reg_14 reg_15 time
#     0     0    27    31    35    39    43     2     0     0     8    13    12    14     8     8                18800
run
# reg_0 reg_1 reg_2 reg_3 reg_4 reg_5 reg_6 reg_7 reg_8 reg_9 reg_10 reg_11 reg_12 reg_13 reg_14 reg_15 time
#     0     0    27    31    35    39    43     2     0     0     8    13    12    14     8     8                19100
run
# reg_0 reg_1 reg_2 reg_3 reg_4 reg_5 reg_6 reg_7 reg_8 reg_9 reg_10 reg_11 reg_12 reg_13 reg_14 reg_15 time
#     0     0    27    31    35    39    43     2     0     0     8    13    12    14     8     8                19400
run
# reg_0 reg_1 reg_2 reg_3 reg_4 reg_5 reg_6 reg_7 reg_8 reg_9 reg_10 reg_11 reg_12 reg_13 reg_14 reg_15 time
#     0     0    27    31    35    39    43     2     0     0     8    13    12    14     8     8                19700
run
# reg_0 reg_1 reg_2 reg_3 reg_4 reg_5 reg_6 reg_7 reg_8 reg_9 reg_10 reg_11 reg_12 reg_13 reg_14 reg_15 time
#     0     0    27    31    35    39    43     1     0     0     8    13    12    14     8     8                20000
run
# reg_0 reg_1 reg_2 reg_3 reg_4 reg_5 reg_6 reg_7 reg_8 reg_9 reg_10 reg_11 reg_12 reg_13 reg_14 reg_15 time
#     0     0    27    31    35    39    43     1     1     0     8    13    12    14     8     8                20300
run
# reg_0 reg_1 reg_2 reg_3 reg_4 reg_5 reg_6 reg_7 reg_8 reg_9 reg_10 reg_11 reg_12 reg_13 reg_14 reg_15 time
#     0     0    27    31    35    39    43     1     1     0     8    13    12    14     8     8                20600
run
# reg_0 reg_1 reg_2 reg_3 reg_4 reg_5 reg_6 reg_7 reg_8 reg_9 reg_10 reg_11 reg_12 reg_13 reg_14 reg_15 time
#     0     0    27    31    35    39    43     1     1     0     8    13    12    14     8     8                20900
run
# reg_0 reg_1 reg_2 reg_3 reg_4 reg_5 reg_6 reg_7 reg_8 reg_9 reg_10 reg_11 reg_12 reg_13 reg_14 reg_15 time
#     0     0    27    31    35    39    43     1     1     0    12    13    12    14     8     8                21200
run
# reg_0 reg_1 reg_2 reg_3 reg_4 reg_5 reg_6 reg_7 reg_8 reg_9 reg_10 reg_11 reg_12 reg_13 reg_14 reg_15 time
#     0     0    27    31    35    39    43     1     1     0    12    13    13    14     8     8                21500
run
# reg_0 reg_1 reg_2 reg_3 reg_4 reg_5 reg_6 reg_7 reg_8 reg_9 reg_10 reg_11 reg_12 reg_13 reg_14 reg_15 time
#     0     0    27    31    35    39    43     1     1     0    12    12    13    14     8     8                21800
run
# reg_0 reg_1 reg_2 reg_3 reg_4 reg_5 reg_6 reg_7 reg_8 reg_9 reg_10 reg_11 reg_12 reg_13 reg_14 reg_15 time
#     0     0    27    31    35    39    43     1     1     0    12    12    13    14     8     8                22100
run
# reg_0 reg_1 reg_2 reg_3 reg_4 reg_5 reg_6 reg_7 reg_8 reg_9 reg_10 reg_11 reg_12 reg_13 reg_14 reg_15 time
#     0     0    27    31    35    39    43     1 65535     0    12    12    13    14     8     8                22400
run
# reg_0 reg_1 reg_2 reg_3 reg_4 reg_5 reg_6 reg_7 reg_8 reg_9 reg_10 reg_11 reg_12 reg_13 reg_14 reg_15 time
#     0     0    27    31    35    39    43     1 65535     0    12    12    13    14     8     8                22700
run
# reg_0 reg_1 reg_2 reg_3 reg_4 reg_5 reg_6 reg_7 reg_8 reg_9 reg_10 reg_11 reg_12 reg_13 reg_14 reg_15 time
#     0     0    27    31    35    39    43     1 65535     0    12    12    13    14     8     8                23000
run
# reg_0 reg_1 reg_2 reg_3 reg_4 reg_5 reg_6 reg_7 reg_8 reg_9 reg_10 reg_11 reg_12 reg_13 reg_14 reg_15 time
#     0     0    27    31    35    39    43     1 65535     0    14    12    13    14     8     8                23300
run
# reg_0 reg_1 reg_2 reg_3 reg_4 reg_5 reg_6 reg_7 reg_8 reg_9 reg_10 reg_11 reg_12 reg_13 reg_14 reg_15 time
#     0     0    27    31    35    39    43     1 65535     0    14    12    13    13     8     8                23600
run
# reg_0 reg_1 reg_2 reg_3 reg_4 reg_5 reg_6 reg_7 reg_8 reg_9 reg_10 reg_11 reg_12 reg_13 reg_14 reg_15 time
#     0     0    27    31    35    39    43     1 65535     0    14    12    14    13     8     8                23900
run
# reg_0 reg_1 reg_2 reg_3 reg_4 reg_5 reg_6 reg_7 reg_8 reg_9 reg_10 reg_11 reg_12 reg_13 reg_14 reg_15 time
#     0     0    27    31    35    39    43     1 65535     0    14    12    14    13     8     8                24200
run
# reg_0 reg_1 reg_2 reg_3 reg_4 reg_5 reg_6 reg_7 reg_8 reg_9 reg_10 reg_11 reg_12 reg_13 reg_14 reg_15 time
#     0     0    27    31    35    39    43     1     5     0    14    12    14    13     8     8                24500
run
# reg_0 reg_1 reg_2 reg_3 reg_4 reg_5 reg_6 reg_7 reg_8 reg_9 reg_10 reg_11 reg_12 reg_13 reg_14 reg_15 time
#     0     0    27    31    35    39    43     1     5     1    14    12    14    13     8     8                24800
run
# reg_0 reg_1 reg_2 reg_3 reg_4 reg_5 reg_6 reg_7 reg_8 reg_9 reg_10 reg_11 reg_12 reg_13 reg_14 reg_15 time
#     0     0    27    31    35    39    43     1     5     1    14    12    14    13     8     8                25100
run
# reg_0 reg_1 reg_2 reg_3 reg_4 reg_5 reg_6 reg_7 reg_8 reg_9 reg_10 reg_11 reg_12 reg_13 reg_14 reg_15 time
#     0     0    27    31    35    39    43     1     0     1    14    12    14    13     8     8                25400
run
# reg_0 reg_1 reg_2 reg_3 reg_4 reg_5 reg_6 reg_7 reg_8 reg_9 reg_10 reg_11 reg_12 reg_13 reg_14 reg_15 time
#     0     0    27    31    35    39    43     1     0     0    14    12    14    13     8     8                25700
run
# reg_0 reg_1 reg_2 reg_3 reg_4 reg_5 reg_6 reg_7 reg_8 reg_9 reg_10 reg_11 reg_12 reg_13 reg_14 reg_15 time
#     0     0    27    31    35    39    43     1     0     0    14    12    14    13     8     8                26000
run
# reg_0 reg_1 reg_2 reg_3 reg_4 reg_5 reg_6 reg_7 reg_8 reg_9 reg_10 reg_11 reg_12 reg_13 reg_14 reg_15 time
#     0     0    27    31    35    39    43     1     0     0     8    12    14    13     8     8                26300
run
# reg_0 reg_1 reg_2 reg_3 reg_4 reg_5 reg_6 reg_7 reg_8 reg_9 reg_10 reg_11 reg_12 reg_13 reg_14 reg_15 time
#     0     0    27    31    35    39    43     1     0     0     8    12    14    13     8     8                26600
run
# reg_0 reg_1 reg_2 reg_3 reg_4 reg_5 reg_6 reg_7 reg_8 reg_9 reg_10 reg_11 reg_12 reg_13 reg_14 reg_15 time
#     0     0    27    31    35    39    43     1     0     0     8    12    14    13     8     8                26900
run
# reg_0 reg_1 reg_2 reg_3 reg_4 reg_5 reg_6 reg_7 reg_8 reg_9 reg_10 reg_11 reg_12 reg_13 reg_14 reg_15 time
#     0     0    27    31    35    39    43     1     0     0     8    12    14    13     8     8                27200
run
# reg_0 reg_1 reg_2 reg_3 reg_4 reg_5 reg_6 reg_7 reg_8 reg_9 reg_10 reg_11 reg_12 reg_13 reg_14 reg_15 time
#     0     0    27    31    35    39    43     1     0     0     8    12    14    13     8     8                27500
run
# reg_0 reg_1 reg_2 reg_3 reg_4 reg_5 reg_6 reg_7 reg_8 reg_9 reg_10 reg_11 reg_12 reg_13 reg_14 reg_15 time
#     0     0    27    31    35    39    43     1     0     0     8    12    14    13     8     8                27800
run
# reg_0 reg_1 reg_2 reg_3 reg_4 reg_5 reg_6 reg_7 reg_8 reg_9 reg_10 reg_11 reg_12 reg_13 reg_14 reg_15 time
#     0     0    27    31    35    39    43     0     0     0     8    12    14    13     8     8                28100
run
# reg_0 reg_1 reg_2 reg_3 reg_4 reg_5 reg_6 reg_7 reg_8 reg_9 reg_10 reg_11 reg_12 reg_13 reg_14 reg_15 time
#     0     0    27    31    35    39    43     0 65534     0     8    12    14    13     8     8                28400
run
# reg_0 reg_1 reg_2 reg_3 reg_4 reg_5 reg_6 reg_7 reg_8 reg_9 reg_10 reg_11 reg_12 reg_13 reg_14 reg_15 time
#     0     0    27    31    35    39    43     0 65534     0     8    12    14    13     8     8                28700
run
# reg_0 reg_1 reg_2 reg_3 reg_4 reg_5 reg_6 reg_7 reg_8 reg_9 reg_10 reg_11 reg_12 reg_13 reg_14 reg_15 time
#     0     0    27    31    35    39    43     0 65534     0     8    12    14    13     8     8                29000
run
# reg_0 reg_1 reg_2 reg_3 reg_4 reg_5 reg_6 reg_7 reg_8 reg_9 reg_10 reg_11 reg_12 reg_13 reg_14 reg_15 time
#     0     0    27    31    35    39    43     0 65534     0    14    12    14    13     8     8                29300
run
# reg_0 reg_1 reg_2 reg_3 reg_4 reg_5 reg_6 reg_7 reg_8 reg_9 reg_10 reg_11 reg_12 reg_13 reg_14 reg_15 time
#     0     0    27    31    35    39    43     0 65534     0    14    12    12    13     8     8                29600
run
# reg_0 reg_1 reg_2 reg_3 reg_4 reg_5 reg_6 reg_7 reg_8 reg_9 reg_10 reg_11 reg_12 reg_13 reg_14 reg_15 time
#     0     0    27    31    35    39    43     0 65534     0    14    14    12    13     8     8                29900
run
# reg_0 reg_1 reg_2 reg_3 reg_4 reg_5 reg_6 reg_7 reg_8 reg_9 reg_10 reg_11 reg_12 reg_13 reg_14 reg_15 time
#     0     0    27    31    35    39    43     0 65534     0    14    14    12    13     8     8                30200
run
